{
    "currentVersionInfo": {
        "version": "1.3.6",
        "hasShownChangelog": true
    },
    "settings": {
        "emojiSize": "40",
        "screenSharing": false,
        "emojiBypass": true,
        "clientsidePfp": true,
        "pfpUrl": ""
    }
}