{
    "currentVersionInfo": {
        "version": "1.2.3",
        "hasShownChangelog": true
    },
    "settings": {
        "maxUsersShown": 6,
        "avatarSize": 20,
        "reactionThreshold": 10,
        "userThreshold": 100,
        "useHighestUserCount": true,
        "showSelf": false,
        "showBots": false
    }
}